<?xml version="1.0" encoding="UTF-8" standalone="no"?>
<svg width="32px" height="32px" viewBox="0 0 32 32" version="1.1" xmlns="http://www.w3.org/2000/svg" xmlns:xlink="http://www.w3.org/1999/xlink" xmlns:sketch="http://www.bohemiancoding.com/sketch/ns">
    <!-- Generator: Sketch 3.3.3 (12072) - http://www.bohemiancoding.com/sketch -->
    <title>burger</title>
    <g id="Page-1" stroke="none" stroke-width="1" fill-rule="evenodd" sketch:type="MSPage">
        <path d="M1,4 L31,4 L31,8 L1,8 L1,4 Z M1,24 L31,24 L31,28 L1,28 L1,24 Z M1,14 L31,14 L31,18 L1,18 L1,14 Z" id="burger" sketch:type="MSShapeGroup"></path>
    </g>
</svg>